INDEX VERSION 1.131+C:\Users\Muskan\OneDrive\Desktop\Desktop\JulyTest\Muskan_Assignment\.metadata\.plugins\org.eclipse.jdt.core
3771420573.index
4124125492.index
2477533607.index
1616233668.index
1246785795.index
3578370746.index
267882561.index
